dinorpg.de.		300	IN	A	178.32.123.64
hammerfest.es.	0	IN	A	149.202.174.50
www.hammerfest.es.	300	IN	CNAME	hammerfest.es.
hfest.net.		300	IN	A	149.202.174.50
data.hfest.net.		300	IN	A	149.202.174.50
www.hfest.net.		300	IN	CNAME	hfest.net.
mush.twinoid.es.		300	IN	A	178.32.123.64
en.popotamo.com.		300	IN	CNAME	popotamo.com.
www.dinoparaiso.com.		300	IN	CNAME	www.dinoparc.com.
